^C:\USERS\JARVIS\DOCUMENTS\VISUAL STUDIO 2012\PROJECTS\WIN32P2\WIN32P2\STDAFX.CPP
C:\USERS\JARVIS\DOCUMENTS\VISUAL STUDIO 2012\PROJECTS\WIN32P2\WIN32P2\DEBUG\WIN32P2.PCH
C:\USERS\JARVIS\DOCUMENTS\VISUAL STUDIO 2012\PROJECTS\WIN32P2\WIN32P2\DEBUG\STDAFX.OBJ
C:\USERS\JARVIS\DOCUMENTS\VISUAL STUDIO 2012\PROJECTS\WIN32P2\WIN32P2\DEBUG\VC110.PDB
^C:\USERS\JARVIS\DOCUMENTS\VISUAL STUDIO 2012\PROJECTS\WIN32P2\WIN32P2\WIN32P2.CPP
C:\USERS\JARVIS\DOCUMENTS\VISUAL STUDIO 2012\PROJECTS\WIN32P2\WIN32P2\DEBUG\WIN32P2.OBJ
C:\USERS\JARVIS\DOCUMENTS\VISUAL STUDIO 2012\PROJECTS\WIN32P2\WIN32P2\DEBUG\VC110.PDB
