^C:\USERS\JARVIS\DOCUMENTS\VISUAL STUDIO 2012\PROJECTS\WIN32P2\WIN32P2\DEBUG\STDAFX.OBJ|C:\USERS\JARVIS\DOCUMENTS\VISUAL STUDIO 2012\PROJECTS\WIN32P2\WIN32P2\DEBUG\WIN32P2.OBJ|C:\USERS\JARVIS\DOCUMENTS\VISUAL STUDIO 2012\PROJECTS\WIN32P2\WIN32P2\DEBUG\WIN32P2.RES
C:\PROGRAM FILES (X86)\WINDOWS KITS\8.0\LIB\WIN8\UM\X86\KERNEL32.LIB
C:\PROGRAM FILES (X86)\WINDOWS KITS\8.0\LIB\WIN8\UM\X86\USER32.LIB
C:\PROGRAM FILES (X86)\WINDOWS KITS\8.0\LIB\WIN8\UM\X86\GDI32.LIB
C:\PROGRAM FILES (X86)\WINDOWS KITS\8.0\LIB\WIN8\UM\X86\WINSPOOL.LIB
C:\PROGRAM FILES (X86)\WINDOWS KITS\8.0\LIB\WIN8\UM\X86\COMDLG32.LIB
C:\PROGRAM FILES (X86)\WINDOWS KITS\8.0\LIB\WIN8\UM\X86\ADVAPI32.LIB
C:\PROGRAM FILES (X86)\WINDOWS KITS\8.0\LIB\WIN8\UM\X86\SHELL32.LIB
C:\PROGRAM FILES (X86)\WINDOWS KITS\8.0\LIB\WIN8\UM\X86\OLE32.LIB
C:\PROGRAM FILES (X86)\WINDOWS KITS\8.0\LIB\WIN8\UM\X86\OLEAUT32.LIB
C:\PROGRAM FILES (X86)\WINDOWS KITS\8.0\LIB\WIN8\UM\X86\UUID.LIB
C:\PROGRAM FILES (X86)\WINDOWS KITS\8.0\LIB\WIN8\UM\X86\ODBC32.LIB
C:\PROGRAM FILES (X86)\WINDOWS KITS\8.0\LIB\WIN8\UM\X86\ODBCCP32.LIB
C:\USERS\JARVIS\DOCUMENTS\VISUAL STUDIO 2012\PROJECTS\WIN32P2\WIN32P2\DEBUG\WIN32P2.RES
C:\USERS\JARVIS\DOCUMENTS\VISUAL STUDIO 2012\PROJECTS\WIN32P2\WIN32P2\DEBUG\STDAFX.OBJ
C:\USERS\JARVIS\DOCUMENTS\VISUAL STUDIO 2012\PROJECTS\WIN32P2\WIN32P2\DEBUG\WIN32P2.OBJ
C:\WINDOWS\SYSTEM32\TZRES.DLL
C:\WINDOWS\GLOBALIZATION\SORTING\SORTDEFAULT.NLS
C:\PROGRAM FILES (X86)\MICROSOFT VISUAL STUDIO 11.0\VC\LIB\MSVCRTD.LIB
C:\PROGRAM FILES (X86)\MICROSOFT VISUAL STUDIO 11.0\VC\LIB\OLDNAMES.LIB
